[
	{
		"model" : "tumblelog.videosource",
		"pk" : "1",
		"fields" : {
			"title" : "YouTube",
			"home" : "http://www.youtube.com",
			"embed_template" : "http://www.youtube.com/v/%s"
		}
	},
	{
		"model" : "tumblelog.videosource",
		"pk" : "2",
		"fields" : {
			"title" : "Google",
			"home" : "http://video.google.com",
			"embed_template" : "http://video.google.com/googleplayer.swf?docId=%s&hl=en"
		}
	}
]